{
  "name": "icons",
  "css_prefix_text": "i-",
  "css_use_suffix": false,
  "hinting": true,
  "units_per_em": 1000,
  "ascent": 850,
  "glyphs": [
    {
      "uid": "17c21cd98db80e521e573eba247bd69b",
      "css": "mail-squared",
      "code": 59414,
      "src": "fontawesome"
    },
    {
      "uid": "43ab845088317bd348dee1d975700c48",
      "css": "ok-circled",
      "code": 59417,
      "src": "fontawesome"
    },
    {
      "uid": "e82cedfa1d5f15b00c5a81c9bd731ea2",
      "css": "info-circled",
      "code": 59406,
      "src": "fontawesome"
    },
    {
      "uid": "de5f0a564ccf8816325330e292e11533",
      "css": "rss-squared",
      "code": 59400,
      "src": "fontawesome"
    },
    {
      "uid": "4743b088aa95d6f3b6b990e770d3b647",
      "css": "facebook-squared",
      "code": 59428,
      "src": "fontawesome"
    },
    {
      "uid": "c75b7d61b0bce6aeb54292e3952a1568",
      "css": "git-squared",
      "code": 59429,
      "src": "fontawesome"
    },
    {
      "uid": "f0cf7db1b03cb65adc450aa3bdaf8c4d",
      "css": "gplus-squared",
      "code": 59418,
      "src": "fontawesome"
    },
    {
      "uid": "4c1ef492f1d2c39a2250ae457cee2a6e",
      "css": "instagram",
      "code": 59434,
      "src": "fontawesome"
    },
    {
      "uid": "1145676a91138011729fa2909997af66",
      "css": "linkedin-squared",
      "code": 59420,
      "src": "fontawesome"
    },
    {
      "uid": "79689c4c425b7cdaa2746f510e81e27a",
      "css": "pinterest-squared",
      "code": 59435,
      "src": "fontawesome"
    },
    {
      "uid": "58a16628dcbd6456c61218f3d27591be",
      "css": "skype",
      "code": 59436,
      "src": "fontawesome"
    },
    {
      "uid": "5b79895d979c408282b4e92fa7db8e82",
      "css": "tumblr-squared",
      "code": 59419,
      "src": "fontawesome"
    },
    {
      "uid": "906348dc798a0d42715cc97c875e3ac6",
      "css": "twitter-squared",
      "code": 59431,
      "src": "fontawesome"
    },
    {
      "uid": "1f66490bf24c99e2c56b866d8fbd0372",
      "css": "vimeo-squared",
      "code": 59437,
      "src": "fontawesome"
    },
    {
      "uid": "39f52f80e1864df5e5022d7f0f5ff86f",
      "css": "wordpress",
      "code": 59433,
      "src": "fontawesome"
    },
    {
      "uid": "e331ff486a299c6bdf0056426c8fac53",
      "css": "youtube-squared",
      "code": 59407,
      "src": "fontawesome"
    },
    {
      "uid": "7222571caa5c15f83dcfd447c58d68d9",
      "css": "search",
      "code": 59421,
      "src": "entypo"
    },
    {
      "uid": "2cfb3f2b46b34a1790aec0aa846297b6",
      "css": "menu",
      "code": 59393,
      "src": "entypo"
    },
    {
      "uid": "c709da589c923ba3c2ad48d9fc563e93",
      "css": "cancel",
      "code": 59392,
      "src": "entypo"
    },
    {
      "uid": "c77fd2fd065b5fe16d6f2b41e190b266",
      "css": "pencil",
      "code": 59422,
      "src": "entypo"
    },
    {
      "uid": "bcb868184ff9c35f8aef564f50c0d649",
      "css": "feather",
      "code": 59423,
      "src": "entypo"
    },
    {
      "uid": "457c8e2b305e7af74c1be4f07a01ca92",
      "css": "vcard",
      "code": 59394,
      "src": "entypo"
    },
    {
      "uid": "a42b598e4298f3319b25a2702a02e7ff",
      "css": "location",
      "code": 59397,
      "src": "entypo"
    },
    {
      "uid": "922ab2cb66943a83de969990289ef1dc",
      "css": "docs",
      "code": 59398,
      "src": "entypo"
    },
    {
      "uid": "1189604bf305b6b03a74685ce60e6632",
      "css": "doc-text",
      "code": 59396,
      "src": "entypo"
    },
    {
      "uid": "5854855e963044f93b15738a5bb27a29",
      "css": "phone",
      "code": 59395,
      "src": "entypo"
    },
    {
      "uid": "91426c82d94428a33353e495418435e3",
      "css": "share",
      "code": 59401,
      "src": "entypo"
    },
    {
      "uid": "f11c9e95ae5eaa84d193e8fa1d38c6f9",
      "css": "down-open-mini",
      "code": 59404,
      "src": "entypo"
    },
    {
      "uid": "592717bd601645d61517d2a584d04127",
      "css": "left-open-mini",
      "code": 59403,
      "src": "entypo"
    },
    {
      "uid": "37f6cfbb4062ed0d01b351ec35c334ff",
      "css": "right-open-mini",
      "code": 59402,
      "src": "entypo"
    },
    {
      "uid": "9e251fb8e9e1c71ab09683468e0479a3",
      "css": "up-open-mini",
      "code": 59399,
      "src": "entypo"
    },
    {
      "uid": "c9a7eca58474311926922ff8c2c1d256",
      "css": "vkontakte",
      "code": 59405,
      "src": "entypo"
    },
    {
      "uid": "b90868gfogj970a1g0dnot6hm5r4uj55",
      "css": "comment-1",
      "code": 59425,
      "src": "typicons"
    },
    {
      "uid": "e0d15ef5945000f5f264acc35494002f",
      "css": "basket",
      "code": 59426,
      "src": "typicons"
    },
    {
      "uid": "0eabe5f8d71cc838484ff39436426d2d",
      "css": "heart",
      "code": 59409,
      "src": "entypo"
    },
    {
      "uid": "815503841e980c848f55e0271deacead",
      "css": "link-1",
      "code": 59410,
      "src": "entypo"
    },
    {
      "uid": "db112402805d9dadc01ce009fbfdb914",
      "css": "paper-plane",
      "code": 59408,
      "src": "entypo"
    },
    {
      "uid": "6e8aea8fff9525dfc5149f0c03669091",
      "css": "flight",
      "code": 59411,
      "src": "entypo"
    }
  ]
}