<?xml version="1.0" encoding="utf-8"?>
<!-- Generator: Adobe Illustrator 16.0.0, SVG Export Plug-In . SVG Version: 6.00 Build 0)  -->
<!DOCTYPE svg PUBLIC "-//W3C//DTD SVG 1.1//EN" "http://www.w3.org/Graphics/SVG/1.1/DTD/svg11.dtd">
<svg version="1.1" id="Layer_1" xmlns="http://www.w3.org/2000/svg" xmlns:xlink="http://www.w3.org/1999/xlink" x="0px" y="0px"
	 width="50px" height="50px" viewBox="-7.5 0 50 50" enable-background="new -7.5 0 50 50" xml:space="preserve">
<g id="Shape_1_1_" enable-background="new    ">
	<g id="Shape_1">
		<g>
			<path fill="#434D5C" d="M33.832,25h-5.018l0.853-10.002h0.081c1.688,0,3.063-1.347,3.063-3.001V3.996
				c0-1.655-1.373-3.001-3.063-3.001H5.251c-1.688,0-3.063,1.346-3.063,3.001v8.001c0,1.654,1.374,3.001,3.063,3.001h0.082L6.184,25
				H1.168c-0.563,0-1.021,0.448-1.021,1v4.001c0,0.552,0.457,1,1.021,1h1.021v17.004c0,0.552,0.458,1,1.021,1h4.083
				c0.563,0,1.021-0.448,1.021-1v-9.002h18.374v9.002c0,0.552,0.457,1,1.021,1h4.083c0.563,0,1.021-0.448,1.021-1V31.001h1.021
				c0.563,0,1.021-0.448,1.021-1V26C34.854,25.448,34.395,25,33.832,25z M5.251,12.998c-0.563,0-1.021-0.449-1.021-1.001V3.996
				c0-0.553,0.459-1,1.021-1h24.497c0.563,0,1.021,0.447,1.021,1v8.001c0,0.552-0.461,1.001-1.021,1.001h-1.021h-4.082H19.54h-4.083
				h-5.104H6.271H5.251z M27.619,14.998L26.768,25h-2.035l0.853-10.002H27.619z M23.536,14.998L22.686,25h-2.123V14.998H23.536z
				 M18.521,14.998V25h-2.042V14.998H18.521z M14.438,14.998V25h-2.123l-0.852-10.002H14.438z M10.267,25H8.23L7.38,14.998h2.036
				L10.267,25z M6.271,47.005H4.229V31.001h2.041V47.005z M26.688,37.002H8.313v-6.001h18.373v6.001H26.688z M30.77,47.005h-2.041
				V31.001h2.041V47.005z M32.811,29.001H31.79h-4.083H7.292H3.21H2.188V27h5.104h4.083h4.083h4.083h4.083h4.083h5.104V29.001z"/>
		</g>
	</g>
</g>
<g id="Rounded_Rectangle_1_1_" enable-background="new    ">
	<g id="Rounded_Rectangle_1">
		<g>
			<path fill="#A5C8C2" d="M24.753,22.601H10.247c-0.534,0-0.968,0.341-0.968,0.762v3.275c0,0.42,0.434,0.762,0.968,0.762h14.506
				c0.534,0,0.968-0.342,0.968-0.762v-3.275C25.721,22.94,25.287,22.601,24.753,22.601z"/>
		</g>
	</g>
</g>
</svg>
