<?xml version="1.0" encoding="utf-8"?>
<!-- Generator: Adobe Illustrator 16.0.0, SVG Export Plug-In . SVG Version: 6.00 Build 0)  -->
<!DOCTYPE svg PUBLIC "-//W3C//DTD SVG 1.1//EN" "http://www.w3.org/Graphics/SVG/1.1/DTD/svg11.dtd">
<svg version="1.1" id="Icon_x5F_01_1_" xmlns="http://www.w3.org/2000/svg" xmlns:xlink="http://www.w3.org/1999/xlink" x="0px"
	 y="0px" width="85px" height="50px" viewBox="0 0 85 50" enable-background="new 0 0 85 50" xml:space="preserve">
<g id="Ellipse_1_copy_4">
	<g>
		<ellipse fill="#A5C8C2" cx="67.599" cy="41.282" rx="3.681" ry="3.693"/>
	</g>
</g>
<g id="Delivery">
	<g>
		<path fill="#424C5C" d="M35.693,6.268H1.277c-0.707,0-1.279,0.571-1.279,1.276c0,0.704,0.572,1.275,1.279,1.275H34.71
			L35.693,6.268z M5.263,27.883c0,0.705,0.573,1.275,1.279,1.275h18.757l0.983-2.552H6.542C5.836,26.606,5.263,27.178,5.263,27.883z
			 M67.512,32.825c-4.754,0-8.605,3.846-8.605,8.59s3.852,8.59,8.605,8.59c4.752,0,8.605-3.846,8.605-8.59
			S72.264,32.825,67.512,32.825z M67.508,46.983c-3.08,0-5.577-2.492-5.577-5.566s2.497-5.567,5.577-5.567s5.578,2.493,5.578,5.567
			S70.588,46.983,67.508,46.983z M81.504,27.073c-0.244-0.113-0.48-0.224-0.697-0.34c-1.294-0.693-5.965-4.181-7.248-5.271
			c-0.572-0.486-2.644-2.784-3.268-4.299c-0.408-0.989-1.867-3.511-3.557-6.431c-1.58-2.728-3.212-5.55-3.933-7.038
			c-1.658-3.428-3.304-3.7-5.284-3.7l-0.17,0.001L42.365-0.005c-0.535,0-1.014,0.332-1.199,0.833l-14.81,39.523
			c-0.146,0.392-0.09,0.829,0.149,1.172c0.239,0.343,0.631,0.548,1.049,0.548h27.429c0.021-0.88,0.146-1.732,0.359-2.553H29.393
			L43.255,2.548h13.921h0.342c1.336,0,1.889,0,2.982,2.258c0.762,1.573,2.418,4.437,4.02,7.205c1.506,2.603,3.064,5.294,3.406,6.124
			c0.834,2.021,3.213,4.624,3.977,5.272c1.434,1.217,6.249,4.372,7.693,5.146c0.258,0.138,0.537,0.361,0.826,0.496
			c1.393,0.649,2.006,1.371,2.021,2.321v5.914c0,1.481-0.753,2.233-2.237,2.233h-1.431c0.213,0.82,0.339,1.673,0.359,2.553h1.071
			c2.912,0,4.795-1.879,4.795-4.786v-5.935C84.956,28.683,82.879,27.715,81.504,27.073z"/>
	</g>
</g>
<g id="Delivery_copy">
	<g>
		<path fill="#A5C8C2" d="M2.631,17.753c0,0.704,0.572,1.276,1.279,1.276h26.08l0.983-2.553H3.91
			C3.203,16.477,2.631,17.048,2.631,17.753z M40.722,23.997c-1.085,0-1.965,0.879-1.965,1.962s0.88,1.961,1.965,1.961
			s1.965-0.878,1.965-1.961S41.807,23.997,40.722,23.997z M64.313,18.449l-6.576-12.78c-0.219-0.426-0.658-0.693-1.137-0.693H46.43
			c-0.543,0-1.026,0.342-1.206,0.853l-4.431,12.816c-0.137,0.388-0.079,0.818,0.158,1.155c0.236,0.338,0.622,0.54,1.034,0.545
			l21.177-0.036h0.014c0.442,0,0.854-0.229,1.087-0.605C64.498,19.323,64.518,18.848,64.313,18.449z M43.799,17.811l3.535-10.282
			h8.484l5.252,10.207L43.799,17.811z"/>
	</g>
</g>
</svg>
