<?xml version="1.0" encoding="utf-8"?>
<!-- Generator: Adobe Illustrator 16.0.0, SVG Export Plug-In . SVG Version: 6.00 Build 0)  -->
<!DOCTYPE svg PUBLIC "-//W3C//DTD SVG 1.1//EN" "http://www.w3.org/Graphics/SVG/1.1/DTD/svg11.dtd">
<svg version="1.1" id="Layer_1" xmlns="http://www.w3.org/2000/svg" xmlns:xlink="http://www.w3.org/1999/xlink" x="0px" y="0px"
	 width="50px" height="30px" viewBox="-0.5 10 50 30" enable-background="new -0.5 10 50 30" xml:space="preserve">
<g id="Shape_1_1_" enable-background="new    ">
	<g id="Shape_1">
		<g>
			<path fill="#141414" d="M38.224,22l-1.411-0.361c-0.289-1.112-0.721-2.165-1.271-3.136l0.749-1.281
				c0.232-0.457,0.383-1.024,0-1.414l-2.759-2.829c-0.172-0.176-0.384-0.246-0.603-0.246c-0.267,0-0.545,0.104-0.778,0.246
				l-1.259,0.773c-0.945-0.561-1.968-1-3.051-1.296L27.486,11c-0.153-0.491-0.436-1-0.976-1h-3.905c-0.539,0-0.854,0.509-0.977,1
				l-0.354,1.456c-1.082,0.296-2.105,0.736-3.053,1.296l-1.256-0.773c-0.233-0.141-0.512-0.246-0.779-0.246
				c-0.219,0-0.43,0.069-0.602,0.246l-2.759,2.829c-0.381,0.39-0.23,0.956,0,1.414l0.75,1.281c-0.55,0.971-0.983,2.024-1.272,3.136
				L10.895,22c-0.479,0.124-0.977,0.447-0.977,1.001V27c0,0.552,0.498,0.843,0.977,1l1.409,0.36c0.29,1.112,0.722,2.164,1.272,3.138
				l-0.75,1.279c-0.252,0.437-0.381,1.023,0,1.414l2.76,2.829c0.168,0.173,0.37,0.239,0.581,0.239c0.268,0,0.55-0.107,0.8-0.239
				l1.256-0.772c0.947,0.559,1.971,1,3.052,1.297l0.354,1.454C21.752,39.488,22.068,40,22.607,40h3.904
				c0.539,0,0.823-0.512,0.976-1.001l0.354-1.454c1.083-0.297,2.105-0.738,3.052-1.297l1.259,0.772
				c0.248,0.132,0.532,0.239,0.799,0.239c0.212,0,0.412-0.066,0.581-0.239l2.759-2.829c0.383-0.391,0.253-0.978,0-1.414
				l-0.748-1.279c0.55-0.974,0.981-2.025,1.271-3.138l1.41-0.36c0.478-0.157,0.976-0.447,0.976-1v-3.999
				C39.199,22.447,38.701,22.124,38.224,22z M37.869,26.685c-0.006,0.001-0.01,0.003-0.016,0.004l-1.362,0.35
				c-0.469,0.121-0.836,0.491-0.96,0.969c-0.26,0.981-0.641,1.925-1.139,2.807c-0.243,0.428-0.239,0.96,0.009,1.386l0.734,1.251
				l-2.327,2.384c-0.004-0.003-0.009-0.005-0.013-0.008l-1.215-0.748c-0.212-0.13-0.447-0.195-0.687-0.195
				c-0.229,0-0.458,0.061-0.665,0.185c-0.859,0.508-1.778,0.899-2.729,1.159c-0.467,0.128-0.831,0.505-0.947,0.987l-0.344,1.405
				c-0.002,0.007-0.003,0.012-0.005,0.018h-3.289l-0.347-1.423c-0.117-0.482-0.481-0.859-0.948-0.987
				c-0.952-0.26-1.871-0.651-2.731-1.159c-0.206-0.124-0.435-0.185-0.665-0.185c-0.237,0-0.474,0.065-0.684,0.195l-1.215,0.748
				c-0.004,0.003-0.009,0.005-0.016,0.008l-2.323-2.384l0.731-1.252c0.25-0.425,0.254-0.957,0.011-1.385
				c-0.499-0.882-0.883-1.825-1.138-2.807c-0.125-0.478-0.495-0.848-0.963-0.969l-1.361-0.35c-0.006-0.001-0.011-0.003-0.016-0.004
				v-3.371l1.376-0.352c0.469-0.12,0.838-0.491,0.963-0.971c0.255-0.979,0.639-1.924,1.138-2.805
				c0.243-0.429,0.239-0.96-0.011-1.386l-0.725-1.238c-0.001-0.005-0.004-0.01-0.006-0.014l2.325-2.382l1.229,0.755
				c0.21,0.128,0.447,0.193,0.684,0.193c0.23,0,0.46-0.061,0.666-0.183c0.859-0.509,1.778-0.899,2.73-1.159
				c0.466-0.128,0.83-0.507,0.947-0.987l0.348-1.423h3.289c0.002,0.006,0.003,0.011,0.005,0.015l0.344,1.408
				c0.116,0.48,0.48,0.859,0.947,0.987c0.952,0.26,1.87,0.65,2.729,1.159c0.208,0.122,0.436,0.183,0.664,0.183
				c0.239,0,0.475-0.065,0.687-0.193l1.228-0.755l2.327,2.382c-0.003,0.004-0.006,0.009-0.008,0.014L34.402,17.8
				c-0.248,0.426-0.252,0.958-0.009,1.387c0.498,0.88,0.88,1.825,1.139,2.805c0.124,0.479,0.491,0.851,0.96,0.971l1.379,0.352v3.371
				H37.869z"/>
		</g>
	</g>
</g>
<g id="Shape_1_copy_1_" enable-background="new    ">
	<g id="Shape_1_copy">
		<g>
			<path fill="#141414" d="M24.32,18.676c-3.616,0-6.545,2.984-6.545,6.664c0,3.68,2.93,6.662,6.545,6.662
				c3.616,0,6.546-2.982,6.546-6.662C30.866,21.66,27.937,18.676,24.32,18.676z M24.32,30.67c-2.892,0-5.237-2.387-5.237-5.33
				s2.344-5.33,5.237-5.33s5.236,2.387,5.236,5.33S27.213,30.67,24.32,30.67z"/>
		</g>
	</g>
</g>
</svg>
