<?xml version="1.0" encoding="utf-8"?>
<!-- Generator: Adobe Illustrator 16.0.0, SVG Export Plug-In . SVG Version: 6.00 Build 0)  -->
<!DOCTYPE svg PUBLIC "-//W3C//DTD SVG 1.1//EN" "http://www.w3.org/Graphics/SVG/1.1/DTD/svg11.dtd">
<svg version="1.1" id="Layer_1" xmlns="http://www.w3.org/2000/svg" xmlns:xlink="http://www.w3.org/1999/xlink" x="0px" y="0px"
	 width="121px" height="58px" viewBox="-31.5 0 121 58" enable-background="new -31.5 0 121 58" xml:space="preserve">
<g>
	<g>
		<path fill="#424C5C" d="M56.839,33.089l-8.11-7.693c-0.082-0.265-0.285-0.483-0.559-0.577L35.333,20.38
			c1.345-2.844,3.492-7.816,3.492-10.583c0-5.33-4.318-9.665-9.627-9.665c-5.309,0-9.627,4.335-9.627,9.665
			c0,2.743,2.167,7.658,3.548,10.516l-13.031,4.506c-0.244,0.084-0.426,0.271-0.522,0.499l-8.403,7.973l8.323,4.117v10.893v0.693
			c0,0.384,0.244,0.725,0.607,0.849l19.048,8.146c0.002,0,0.005,0,0.008,0.002c0.089,0.028,0.183,0.045,0.279,0.045
			c0.097,0,0.191-0.017,0.284-0.047c0.003-0.003,0.009-0.003,0.013-0.003l18.452-8.147c0.358-0.125,0.599-0.464,0.599-0.845v-0.693
			V37.08L56.839,33.089z M38.67,40.08l-7.831-6.905l17.028-6.131l5.878,5.577L38.67,40.08z M29.196,1.924
			c4.326,0,7.843,3.531,7.843,7.873c0,4.069-5.857,15.308-7.729,17.699c-0.771-0.974-2.371-3.547-4.143-7.072
			c-0.003-0.006-0.009-0.011-0.012-0.016c-1.965-3.928-3.8-8.368-3.8-10.611C21.355,5.457,24.874,1.924,29.196,1.924z M23.924,21.93
			c2.588,5.079,4.397,7.659,5.374,7.659c0.008,0,0.017,0,0.026,0c0.001,0,0.001,0,0.001,0c0.001,0,0.001,0,0.001,0
			c0.148-0.001,0.4-0.03,0.854-0.454c1.026-0.935,2.504-3.315,4.405-7.118l11.199,3.872l-17.065,6.147l-16.2-5.835l-0.456-0.169
			L23.924,21.93z M10.132,27.246l17.028,6.132l-7.831,6.903L4.255,32.823L10.132,27.246z M11.271,48.35V38.293l8.341,4.126
			l8.921-7.864v21.334L11.271,48.35z M46.986,48.357l-16.668,7.52V35.104l8.07,7.112l8.598-4.255V48.357z"/>
		<path fill="#424C5C" d="M29.196,14.271c2.458,0,4.458-2.007,4.458-4.474c0-2.468-2-4.474-4.458-4.474
			c-2.458,0-4.457,2.006-4.457,4.474C24.74,12.264,26.739,14.271,29.196,14.271z M29.196,7.115c1.474,0,2.673,1.203,2.673,2.682
			c0,1.478-1.199,2.681-2.673,2.681c-1.472,0-2.67-1.203-2.67-2.681C26.526,8.318,27.724,7.115,29.196,7.115z"/>
	</g>
	<ellipse fill="#A5C8C2" cx="29.179" cy="9.833" rx="2.692" ry="2.703"/>
	<polygon fill="#A5C8C2" points="4.255,32.823 10.132,27.246 27.161,33.378 19.33,40.281 	"/>
	<polygon fill="#A5C8C2" points="30.318,35.104 38.391,42.217 46.986,37.962 46.986,48.357 30.318,55.877 	"/>
</g>
</svg>
