<?xml version="1.0" encoding="utf-8"?>
<!-- Generator: Adobe Illustrator 16.0.0, SVG Export Plug-In . SVG Version: 6.00 Build 0)  -->
<!DOCTYPE svg PUBLIC "-//W3C//DTD SVG 1.1//EN" "http://www.w3.org/Graphics/SVG/1.1/DTD/svg11.dtd">
<svg version="1.1" id="Icon_x5F_02_1_" xmlns="http://www.w3.org/2000/svg" xmlns:xlink="http://www.w3.org/1999/xlink" x="0px"
	 y="0px" width="61px" height="50px" viewBox="0 0 61 50" enable-background="new 0 0 61 50" xml:space="preserve">
<g id="Ellipse_1_copy_2">
	<g>
		<ellipse fill="#A5C8C2" cx="23.538" cy="44" rx="3.647" ry="3.667"/>
	</g>
</g>
<g id="Ellipse_1_copy_3">
	<g>
		<ellipse fill="#A5C8C2" cx="47.739" cy="44" rx="3.647" ry="3.667"/>
	</g>
</g>
<g id="Shopping_cart">
	<g>
		<path fill-rule="evenodd" clip-rule="evenodd" fill="#424C5C" d="M60.436,5.017c-0.413-0.604-1.254-1.321-2.93-1.321
			c-2.752,0.044-38.571,0.001-38.87,0h-0.001c-0.702,0-1.271,0.567-1.272,1.269c-0.001,0.702,0.568,1.271,1.271,1.272
			c1.214,0.002,36.138,0.041,38.892,0c0.416,0,0.72,0.082,0.814,0.218c0.145,0.211,0.239,0.958-0.285,2.327
			c-1.256,2.646-7.152,16.273-7.908,17.458c-0.114,0.179-0.217,0.354-0.315,0.522c-0.491,0.841-0.655,1.124-2.304,1.124H19.409
			c-1.521-5.729-6.85-24.61-7.103-25.534c-0.016-0.057-0.035-0.112-0.059-0.166C11.363,0.12,9.303,0.004,7.123,0.004H1.274
			c-0.702,0-1.272,0.568-1.272,1.271c0,0.701,0.57,1.271,1.272,1.271h5.849c1.115,0,2.261,0.769,2.755,1.839
			c0.459,1.683,6.888,23.171,7.417,25.501c0.961,4.226,3.534,6.983,7.059,6.983h23.75c0.703,0,1.272-0.569,1.272-1.271
			c0-0.702-0.569-1.271-1.272-1.271h-23.75c-2.492,0-3.687-2.154-4.263-3.899h27.436c2.88,0,3.713-1.033,4.501-2.385
			c0.083-0.142,0.169-0.288,0.265-0.438c0.809-1.27,6.752-14.975,8.098-17.82C61.183,7.729,61.199,6.126,60.436,5.017z
			 M23.681,38.126c-3.275,0-5.939,2.662-5.939,5.934c0,3.273,2.664,5.937,5.939,5.937s5.941-2.663,5.941-5.937
			C29.622,40.788,26.956,38.126,23.681,38.126z M23.68,47.556c-1.927,0-3.496-1.568-3.496-3.496c0-1.927,1.569-3.494,3.496-3.494
			c1.929,0,3.498,1.567,3.498,3.494C27.178,45.987,25.609,47.556,23.68,47.556z M47.848,38.126c-3.275,0-5.939,2.662-5.939,5.934
			c0,3.273,2.664,5.937,5.939,5.937s5.94-2.663,5.94-5.937C53.788,40.788,51.123,38.126,47.848,38.126z M47.847,47.556
			c-1.927,0-3.496-1.568-3.496-3.496c0-1.927,1.569-3.494,3.496-3.494c1.929,0,3.499,1.567,3.499,3.494
			C51.346,45.987,49.775,47.556,47.847,47.556z"/>
	</g>
</g>
<g id="Rounded_Rectangle_1">
	<g>
		<path fill="#A5C8C2" d="M53.541,11.667H19.063c-0.641,0-1.16,0.522-1.16,1.166c0,0.645,0.52,1.167,1.16,1.167h34.479
			c0.641,0,1.16-0.522,1.16-1.167C54.701,12.189,54.182,11.667,53.541,11.667z"/>
	</g>
</g>
<g id="Rounded_Rectangle_1_copy">
	<g>
		<path fill="#A5C8C2" d="M49.895,16.333H22.046c-0.641,0-1.161,0.522-1.161,1.167s0.52,1.167,1.161,1.167h27.848
			c0.641,0,1.16-0.522,1.16-1.167S50.535,16.333,49.895,16.333z"/>
	</g>
</g>
<g id="Rounded_Rectangle_1_copy_2">
	<g>
		<path fill="#A5C8C2" d="M46.578,21H25.361c-0.641,0-1.16,0.522-1.16,1.167c0,0.644,0.52,1.166,1.16,1.166h21.217
			c0.642,0,1.161-0.522,1.161-1.166C47.739,21.522,47.22,21,46.578,21z"/>
	</g>
</g>
</svg>
