<?xml version="1.0" encoding="utf-8"?>
<!-- Generator: Adobe Illustrator 16.0.0, SVG Export Plug-In . SVG Version: 6.00 Build 0)  -->
<!DOCTYPE svg PUBLIC "-//W3C//DTD SVG 1.1//EN" "http://www.w3.org/Graphics/SVG/1.1/DTD/svg11.dtd">
<svg version="1.1" id="Cards_2_" xmlns="http://www.w3.org/2000/svg" xmlns:xlink="http://www.w3.org/1999/xlink" x="0px" y="0px"
	 width="49.997px" height="30px" viewBox="-0.999 10 49.997 30" enable-background="new -0.999 10 49.997 30" xml:space="preserve">
<g id="Shape_2">
	<g>
		<polygon fill="#A5C8C2" points="28.667,10.592 13.969,19.193 23.502,19.193 31.051,14.592 		"/>
	</g>
</g>
<g id="Cards">
	<g>
		<path fill="#424C5C" d="M27.917,11.337c0.299-0.173,0.683-0.07,0.855,0.23l1.848,3.217l-7.67,4.454h2.614l5.708-3.314l1.903,3.314
			h1.446l-4.766-8.3c-0.518-0.902-1.668-1.213-2.564-0.691l-15.485,8.992h2.504L27.917,11.337z M36.523,19.89H11.475
			c-1.036,0-1.878,0.848-1.878,1.888v16.327c0,1.041,0.842,1.889,1.878,1.889h25.049c1.036,0,1.879-0.848,1.879-1.889V21.779
			C38.402,20.738,37.56,19.89,36.523,19.89z M37.15,38.106c0,0.347-0.281,0.629-0.627,0.629H11.475
			c-0.345,0-0.625-0.282-0.625-0.629V26.81H37.15V38.106z M37.15,25.495H10.849v-3.715c0-0.347,0.281-0.629,0.625-0.629h25.049
			c0.346,0,0.627,0.283,0.627,0.629V25.495z"/>
	</g>
</g>
<g id="Cards_copy">
	<g>
		<path fill="#A5C8C2" d="M20.031,31.14h2.901c0.328,0,0.594-0.268,0.594-0.598c0-0.331-0.266-0.598-0.594-0.598h-2.901
			c-0.328,0-0.594,0.267-0.594,0.598C19.438,30.872,19.703,31.14,20.031,31.14z M33.963,29.944h-2.885
			c-0.328,0-0.593,0.267-0.593,0.598c0,0.33,0.265,0.598,0.593,0.598h2.885c0.328,0,0.595-0.268,0.595-0.598
			C34.558,30.211,34.291,29.944,33.963,29.944z M14.33,31.14h3.002c0.328,0,0.594-0.268,0.594-0.598
			c0-0.331-0.266-0.598-0.594-0.598H14.33c-0.328,0-0.594,0.267-0.594,0.598C13.736,30.872,14.001,31.14,14.33,31.14z M28.38,29.944
			h-2.884c-0.328,0-0.594,0.267-0.594,0.598c0,0.33,0.266,0.598,0.594,0.598h2.884c0.328,0,0.594-0.268,0.594-0.598
			C28.974,30.211,28.708,29.944,28.38,29.944z M26.028,34.352H14.33c-0.328,0-0.594,0.268-0.594,0.598s0.266,0.598,0.594,0.598
			h11.699c0.328,0,0.594-0.268,0.594-0.598S26.356,34.352,26.028,34.352z"/>
	</g>
</g>
</svg>
