<?xml version="1.0" encoding="utf-8"?>
<!-- Generator: Adobe Illustrator 16.0.0, SVG Export Plug-In . SVG Version: 6.00 Build 0)  -->
<!DOCTYPE svg PUBLIC "-//W3C//DTD SVG 1.1//EN" "http://www.w3.org/Graphics/SVG/1.1/DTD/svg11.dtd">
<svg version="1.1" id="Layer_1" xmlns="http://www.w3.org/2000/svg" xmlns:xlink="http://www.w3.org/1999/xlink" x="0px" y="0px"
	 width="50px" height="50px" viewBox="-8.5 0 50 50" enable-background="new -8.5 0 50 50" xml:space="preserve">
<g id="Shape_1_1_" enable-background="new    ">
</g>
<g id="Rounded_Rectangle_2_copy_1_" enable-background="new    ">
</g>
<g id="Shape_1_copy_2_1_" enable-background="new    ">
</g>
<g id="Shape_1_copy_10_1_" enable-background="new    ">
	<g>
		<g id="Shape_1">
			<g>
				<path fill="#434D5C" d="M31.476,25h-0.998V6c0-2.756-2.24-5-4.992-5H7.514C4.763,1,2.521,3.244,2.521,6v19H1.522
					c-0.551,0-0.998,0.448-0.998,1s0.447,1,0.998,1h0.999v19c0,0.552,0.446,1,0.999,1H4.52v1c0,0.552,0.446,1,0.999,1
					c0.551,0,0.998-0.448,0.998-1v-1h21.965v1c0,0.552,0.447,1,0.998,1c0.552,0,1-0.448,1-1v-2V27h0.998
					c0.551,0,0.998-0.448,0.998-1S32.026,25,31.476,25z M28.479,45H4.519v-8h23.961V45z M28.479,35H4.519v-8h23.961V35z M28.479,25
					h-9.983h-1.997H4.519V6c0-1.653,1.344-2.999,2.995-2.999h17.972c1.65,0,2.994,1.346,2.994,2.999V25z"/>
			</g>
		</g>
		<g id="Rounded_Rectangle_2_copy">
			<g>
				<path fill="#A5C8C2" d="M25.824,37.479H7.179c-0.774,0-1.402,0.592-1.402,1.319v4.088c0,0.729,0.628,1.318,1.402,1.318h18.646
					c0.774,0,1.401-0.59,1.401-1.318v-4.088C27.228,38.068,26.599,37.479,25.824,37.479z"/>
			</g>
		</g>
		<g id="Shape_1_copy_2">
			<g>
				<path fill="#A5C8C2" d="M19.494,21h-0.998v-3c0-1.654-1.345-3-2.996-3c-1.65,0-2.995,1.346-2.995,3c0,0.552,0.447,1,0.999,1
					s0.999-0.448,0.999-1s0.447-1,0.998-1c0.552,0,0.999,0.448,0.999,1v3h-0.999c-0.551,0-0.998,0.448-0.998,1s0.447,1,0.998,1
					h0.998v2h1.997v-2h0.998c0.552,0,0.999-0.448,0.999-1S20.046,21,19.494,21z M7.514,11c0.256,0,0.511-0.098,0.704-0.292l3.994-4
					c0.39-0.39,0.39-1.023,0-1.414c-0.39-0.39-1.021-0.39-1.412,0l-3.993,4c-0.39,0.391-0.39,1.024,0,1.414
					C7.002,10.902,7.257,11,7.514,11z M16.206,7.294c-0.39-0.39-1.021-0.39-1.412,0l-7.986,8c-0.391,0.39-0.391,1.023,0,1.414
					C7.002,16.902,7.258,17,7.514,17s0.511-0.098,0.704-0.292l7.987-8C16.596,8.318,16.596,7.685,16.206,7.294z M17.497,29H15.5
					c-0.551,0-0.998,0.448-0.998,1s0.447,1,0.998,1h1.997c0.551,0,0.999-0.448,0.999-1S18.049,29,17.497,29z M17.497,39H15.5
					c-0.551,0-0.998,0.447-0.998,1c0,0.552,0.447,1,0.998,1h1.997c0.552,0,0.999-0.448,0.999-1C18.496,39.447,18.049,39,17.497,39z"
					/>
			</g>
		</g>
		<g id="Shape_1_copy_10">
			<g>
				<path fill="#434D5C" d="M15.5,31h1.997c0.551,0,0.999-0.448,0.999-1s-0.447-1-0.999-1H15.5c-0.551,0-0.998,0.448-0.998,1
					S14.95,31,15.5,31z M17.497,39H15.5c-0.551,0-0.998,0.447-0.998,1c0,0.552,0.447,1,0.998,1h1.997c0.552,0,0.999-0.448,0.999-1
					C18.496,39.447,18.049,39,17.497,39z"/>
			</g>
		</g>
	</g>
</g>
</svg>
