<?xml version="1.0" encoding="utf-8"?>
<!-- Generator: Adobe Illustrator 16.0.0, SVG Export Plug-In . SVG Version: 6.00 Build 0)  -->
<!DOCTYPE svg PUBLIC "-//W3C//DTD SVG 1.1//EN" "http://www.w3.org/Graphics/SVG/1.1/DTD/svg11.dtd">
<svg version="1.1" xmlns="http://www.w3.org/2000/svg" xmlns:xlink="http://www.w3.org/1999/xlink" x="0px" y="0px" width="16px"
	 height="16px" viewBox="0 0 16 16" enable-background="new 0 0 16 16" xml:space="preserve">
<g id="Forma_1_1_" enable-background="new    ">
	<g id="Forma_1">
		<g>
			<path fill-rule="evenodd" clip-rule="evenodd" d="M0.5,15.81h15V0.814L0.5,15.81z M15.027,2.568h-0.473v0.473h0.473v0.944h-0.709
				v0.472h0.709v0.945h-0.473v0.472h0.473v0.944h-0.709v0.473h0.709v0.944h-0.473v0.473h0.473v0.944h-0.709v0.473h0.709v0.944
				h-0.473v0.473h0.473v0.944h-0.709v0.473h0.709v0.944h-0.473v0.473h0.473v0.944H14.08v-0.455h-0.473v0.473h-0.945V14.63h-0.473
				v0.708h-0.944v-0.473h-0.473v0.473H9.828V14.63H9.355v0.708H8.41v-0.473H7.938v0.473H6.993V14.63H6.521v0.708H5.576v-0.473H5.103
				v0.473H4.158V14.63H3.686v0.708H2.741v-0.473H2.269v0.473H1.643L15.027,1.957V2.568z M13.371,6.252l-7.432,7.43h7.432V6.252z
				 M12.898,13.21H7.082l5.817-5.815V13.21z M11.363,3.646c0.461-0.461,0.461-1.21,0-1.67c-0.461-0.461-1.211-0.461-1.672,0
				L1.74,9.921l-0.8,2.474l2.474-0.8L11.363,3.646z M10.025,2.309c0.277-0.277,0.727-0.277,1.004,0s0.277,0.727,0,1.004
				l-0.334,0.333L9.691,2.643L10.025,2.309z M1.675,11.657l0.378-1.169l0.791,0.791L1.675,11.657z M2.283,10.048l7.072-7.069
				l1.004,1.004l-7.075,7.069L2.283,10.048z"/>
		</g>
	</g>
</g>
<g id="Shape_1_1_" enable-background="new    ">
	<g id="Shape_1">
		<g>
			<polygon fill="#A5C8C2" points="8,12.812 12.5,12.812 12.5,8.313 			"/>
		</g>
	</g>
</g>
</svg>
