<?xml version="1.0" encoding="utf-8"?>
<!-- Generator: Adobe Illustrator 16.0.0, SVG Export Plug-In . SVG Version: 6.00 Build 0)  -->
<!DOCTYPE svg PUBLIC "-//W3C//DTD SVG 1.1//EN" "http://www.w3.org/Graphics/SVG/1.1/DTD/svg11.dtd">
<svg version="1.1" id="Layer_1" xmlns="http://www.w3.org/2000/svg" xmlns:xlink="http://www.w3.org/1999/xlink" x="0px" y="0px"
	 width="162.011px" height="30.063px" viewBox="0 0 162.011 30.063" enable-background="new 0 0 162.011 30.063"
	 xml:space="preserve">
<g>
	<circle fill="#1CB7EB" cx="48.003" cy="15" r="15"/>
	<g>
		<g>
			<path fill="#FFFFFF" d="M56.003,9.625c-0.563,0.313-1.25,0.5-1.875,0.563c0.688-0.438,1.188-1.125,1.438-1.938
				c-0.625,0.375-1.313,0.688-2.125,0.875C52.815,8.438,52.003,8,51.065,8c-1.813,0-3.313,1.563-3.313,3.563
				c0,0.25,0,0.563,0.063,0.813c-2.75-0.125-5.188-1.563-6.813-3.688c-0.313,0.5-0.438,1.125-0.438,1.813
				c0,1.25,0.563,2.313,1.438,2.938c-0.563,0-1.063-0.188-1.5-0.438v0.063c0,1.688,1.125,3.125,2.625,3.5
				c-0.25,0.063-0.563,0.125-0.875,0.125c-0.188,0-0.438,0-0.625-0.063c0.438,1.438,1.625,2.438,3.063,2.438
				c-1.125,0.938-2.563,1.5-4.063,1.5c-0.25,0-0.5,0-0.813-0.063c1.438,1,3.188,1.625,5.063,1.625c6.063,0,9.375-5.375,9.375-10.063
				c0-0.125,0-0.313,0-0.438C55.003,11,55.565,10.375,56.003,9.625z"/>
		</g>
	</g>
</g>
<path fill="#0E76A8" d="M147.012,0c8.285,0,15,6.716,15,15s-6.715,15-15,15s-15-6.716-15-15S138.727,0,147.012,0z"/>
<path fill="#FFFFFF" d="M140.465,20.61h2.808v-9.362h-2.808V20.61z M151.408,10.924c-1.364,0-2.583,0.498-3.448,1.597v-1.304h-2.819
	v9.394h2.819v-5.079c0-1.074,0.983-2.121,2.215-2.121s1.535,1.047,1.535,2.094v5.104h2.809v-5.313
	C154.518,11.604,152.772,10.924,151.408,10.924z M141.856,10.313c0.776,0,1.406-0.63,1.406-1.406s-0.63-1.406-1.406-1.406
	s-1.406,0.63-1.406,1.406S141.08,10.313,141.856,10.313z"/>
<g>
	<g>
		<circle fill="#3F65A6" cx="14.999" cy="15.063" r="15"/>
		<path id="Facebook_4_" fill="#FFFFFF" d="M12.72,10.129c0,0.433,0,2.367,0,2.367h-1.734v2.895h1.734v7.933h3.562v-7.939h2.392
			c0,0,0.222-1.388,0.333-2.906c-0.311,0-2.708,0-2.708,0s0-1.682,0-1.98c0-0.292,0.388-0.691,0.774-0.691c0.38,0,1.189,0,1.938,0
			c0-0.393,0-1.758,0-3.012c-1,0-2.137,0-2.636,0C12.632,6.801,12.72,9.696,12.72,10.129z"/>
	</g>
</g>
<g>
	<circle fill="#ED5A4F" cx="81.019" cy="15.063" r="15"/>
	<path fill="#FFFFFF" d="M83.363,14.157c0.122,1.721-0.132,3.564-1.25,4.945c-1.532,1.972-4.363,2.55-6.666,1.776
		c-2.444-0.803-4.221-3.264-4.167-5.844c-0.121-3.188,2.671-6.134,5.861-6.172c1.627-0.138,3.209,0.493,4.439,1.523
		c-0.505,0.555-1.018,1.104-1.566,1.618c-1.084-0.659-2.389-1.16-3.655-0.714c-2.042,0.581-3.279,2.993-2.523,4.991
		c0.626,2.087,3.164,3.232,5.153,2.354c1.031-0.367,1.71-1.318,2.008-2.34c-1.181-0.023-2.361-0.009-3.542-0.041
		c-0.003-0.702-0.006-1.402-0.003-2.104C79.42,14.146,81.392,14.14,83.363,14.157z M88.954,14.122
		c-0.005-0.587,0.006-1.104,0.004-1.786c-0.588,0-1.172,0-1.757,0c-0.005,0.682-0.03,1.198-0.034,1.786
		c-0.589,0.006-1.102,0.03-1.783,0.033c0,0.587,0,1.172,0,1.759c0.682,0.003,1.197,0.007,1.783,0.013
		c0.006,0.587,0.016,1.174,0.022,1.766c0.584,0,1.176-0.004,1.765,0c0.002-0.592-0.01-1.179-0.003-1.769
		c0.586-0.003,1.205-0.007,1.75-0.01c0-0.587,0-1.171,0-1.759C90.156,14.151,89.54,14.128,88.954,14.122z"/>
</g>
<g id="layer1" transform="translate(0,-552.36218)">
	<path id="rect2990-1" fill="#CB1F26" d="M114.023,552.362L114.023,552.362c8.285,0,15,6.716,15,15l0,0c0,8.284-6.715,15-15,15l0,0
		c-8.283,0-14.999-6.716-14.999-15l0,0C99.024,559.078,105.74,552.362,114.023,552.362z"/>
	<g id="layer1-9" transform="translate(-549.00515,80.294372)">
	</g>
	<g id="layer1-6" transform="translate(-575.71429,39.999999)">
	</g>
	<g id="layer1-1" transform="matrix(0.99974425,0,0,0.99974425,549.52522,-36.115804)">
	</g>
	<path id="rect2989" fill="#FFFFFF" d="M114.487,557.762c-5.405,0-8.13,3.756-8.13,6.889c0,1.897,0.74,3.584,2.328,4.213
		c0.262,0.104,0.495,0.005,0.57-0.275c0.053-0.192,0.178-0.68,0.232-0.884c0.076-0.276,0.048-0.374-0.162-0.616
		c-0.459-0.523-0.752-1.202-0.752-2.163c0-2.787,2.15-5.282,5.601-5.282c3.056,0,4.733,1.809,4.733,4.225
		c0,3.181-1.451,5.866-3.605,5.866c-1.191,0-2.08-0.954-1.796-2.125c0.342-1.397,1.005-2.905,1.005-3.914
		c0-0.903-0.503-1.655-1.537-1.655c-1.217,0-2.191,1.22-2.191,2.854c0,1.041,0.361,1.745,0.361,1.745s-1.245,5.114-1.463,6.01
		c-0.436,1.784-0.066,3.97-0.035,4.19c0.018,0.131,0.192,0.162,0.271,0.063c0.111-0.143,1.563-1.876,2.055-3.609
		c0.139-0.49,0.8-3.03,0.8-3.03c0.396,0.731,1.55,1.374,2.778,1.374c3.658,0,6.141-3.231,6.141-7.557
		C121.691,560.81,118.832,557.762,114.487,557.762L114.487,557.762z"/>
</g>
</svg>
