<?xml version="1.0" encoding="utf-8"?>
<!-- Generator: Adobe Illustrator 15.0.0, SVG Export Plug-In . SVG Version: 6.00 Build 0)  -->
<!DOCTYPE svg PUBLIC "-//W3C//DTD SVG 1.1//EN" "http://www.w3.org/Graphics/SVG/1.1/DTD/svg11.dtd">
<svg version="1.1" id="Layer_1" xmlns="http://www.w3.org/2000/svg" xmlns:xlink="http://www.w3.org/1999/xlink" x="0px" y="0px"
	 width="20px" height="14px" viewBox="0 0 20 14" enable-background="new 0 0 20 14" xml:space="preserve">
<g>
	<path fill="#929292" d="M19.892,6.716c-0.749-1.194-1.709-2.271-2.833-3.114l-3.324,2.505c0.071,0.305,0.117,0.609,0.117,0.913
		c0,2.131-1.732,3.863-3.862,3.863c-0.702,0-1.357-0.188-1.919-0.515L5.8,12.077c1.311,0.514,2.715,0.772,4.19,0.772
		c4.19,0,7.866-2.2,9.925-5.524C20.032,7.161,20.032,6.904,19.892,6.716z"/>
	<path fill="#929292" d="M17.808,0.162l-2.856,2.154c-1.497-0.702-3.183-1.124-4.961-1.124c-4.19,0-7.842,2.2-9.902,5.524
		c-0.117,0.188-0.117,0.445,0,0.632c0.89,1.428,2.083,2.645,3.464,3.558l-2.411,1.803C1.024,12.802,1,12.968,1.094,13.083
		l0.492,0.657c0.093,0.116,0.257,0.14,0.374,0.046L18.628,1.238c0.117-0.093,0.14-0.257,0.047-0.375l-0.492-0.632
		C18.089,0.115,17.925,0.091,17.808,0.162z M6.127,7.021c0-2.13,1.732-3.862,3.862-3.862c0.983,0,1.873,0.374,2.551,0.96
		L6.502,8.683C6.268,8.168,6.127,7.629,6.127,7.021z"/>
</g>
</svg>
